{
  "settingsVersion": "1.62.4",
  "exclusionRules": [
    {
      "pattern": "https?://mail.google.com/*",
      "passKeys": ""
    },
    {
      "pattern": "https?://vim-adventures.com/*",
      "passKeys": ""
    }
  ],
  "filterLinkHints": false,
  "waitForEnterForFilteredHints": true,
  "hideHud": false,
  "keyMappings": "# Insert your preferred key mappings here.",
  "linkHintCharacters": "sadfjklewcmpgh",
  "linkHintNumbers": "0123456789",
  "newTabUrl": "pages/blank.html",
  "nextPatterns": "next,more,newer,>,›,→,»,≫,>>",
  "previousPatterns": "prev,previous,back,older,<,‹,←,«,≪,<<",
  "regexFindMode": false,
  "ignoreKeyboardLayout": false,
  "scrollStepSize": 60,
  "smoothScroll": true,
  "grabBackFocus": true,
  "searchEngines": "g: https://www.google.com/search?q=%s Google\ngi: https://www.google.com/search?tbm=isch&q=%s Google Images\ngm: https://www.google.com/maps?q=%s Google Maps\ngt https://translate.google.de/#en/de/%s Google Translate English\ngtg https://translate.google.de/#de/en/%s Google Translate German",
  "searchUrl": "https://www.google.com/search?q=",
  "userDefinedLinkHintCss": "div > .vimiumHintMarker {\n/* linkhint boxes */\nbackground: -webkit-gradient(linear, left top, left bottom, color-stop(0%,#FFF785),\n  color-stop(100%,#FFC542));\nborder: 1px solid #E3BE23;\n}\n\ndiv > .vimiumHintMarker span {\n/* linkhint text */\ncolor: black;\nfont-weight: bold;\nfont-size: 12px;\n}\n\ndiv > .vimiumHintMarker > .matchingCharacter {\n}"
}